/home/artur/Desktop/WORK/JAVA_SCHOOL/demoProject/springJavaMVC/src/main/java/beans/Book.java
/home/artur/Desktop/WORK/JAVA_SCHOOL/demoProject/springJavaMVC/src/main/java/controller/HelloController.java
/home/artur/Desktop/WORK/JAVA_SCHOOL/demoProject/springJavaMVC/src/main/java/SpringConfig.java
/home/artur/Desktop/WORK/JAVA_SCHOOL/demoProject/springJavaMVC/src/main/java/controller/LoginController.java
/home/artur/Desktop/WORK/JAVA_SCHOOL/demoProject/springJavaMVC/src/main/java/beans/BooksDB.java
/home/artur/Desktop/WORK/JAVA_SCHOOL/demoProject/springJavaMVC/src/main/java/configuration/SpringMVCWebAppInitializer.java
/home/artur/Desktop/WORK/JAVA_SCHOOL/demoProject/springJavaMVC/src/main/java/beans/LogEntry.java
/home/artur/Desktop/WORK/JAVA_SCHOOL/demoProject/springJavaMVC/src/main/java/WebServletConfiguration.java
/home/artur/Desktop/WORK/JAVA_SCHOOL/demoProject/springJavaMVC/src/main/java/configuration/SecurityConfiguration.java
/home/artur/Desktop/WORK/JAVA_SCHOOL/demoProject/springJavaMVC/src/main/java/configuration/SpringSecurityInitializer.java
/home/artur/Desktop/WORK/JAVA_SCHOOL/demoProject/springJavaMVC/src/main/java/beans/User.java
